<svg xmlns="http://www.w3.org/2000/svg" width="753.542" height="753.183" viewBox="0 0 753.542 753.183">
  <g id="background_image_for_Dr.Azra_aza" data-name="background image for Dr.Azra aza" transform="translate(-3960.331 -10192.681) rotate(-25)" opacity="0.03">
    <path id="Path_238" data-name="Path 238" d="M224.209,0H.2V229.971L335.788,568.115H564.056V336.44ZM529.134,532.341H349.416L35.973,214.64V35.773H212.285l316.85,318.553Z" transform="translate(-818.497 11127.73)" fill="#61050e"/>
    <path id="Path_239" data-name="Path 239" d="M568.115,224.209V.2H338.143L0,336.64V564.908H231.675ZM35.773,529.134V349.416l317.7-313.443H532.341V212.285L213.788,529.134Z" transform="translate(-820 11129.236)" fill="#61050e"/>
    <path id="Path_240" data-name="Path 240" d="M11.3,388.523H386.068V11.2H11.3Zm346.661-28.959H40.259V40.159h317.7Z" transform="translate(-735.053 11211.926)" fill="#61050e"/>
  </g>
</svg>
